{
  "db_name": "SQLite",
  "query": "UPDATE message SET thread = ?1 WHERE thread = ?2",
  "describe": {
    "columns": [],
    "parameters": {
      "Right": 2
    },
    "nullable": []
  },
  "hash": "172df200c1eb40a0829bb88a156efd3ac2d37234ff8d32c624a721eea6b2a40c"
}
