{
  "db_name": "SQLite",
  "query": "DELETE FROM message WHERE mailbox = ?",
  "describe": {
    "columns": [],
    "parameters": {
      "Right": 1
    },
    "nullable": []
  },
  "hash": "440d96086564857821b0ae22fb63dd506faccacdd0ba1f0662722ac57f61395e"
}
