{
  "db_name": "SQLite",
  "query": "UPDATE message\n                SET (flag_seen, flags) = (?1, ?2)\n                WHERE mailbox = ?3 AND uid = ?4",
  "describe": {
    "columns": [],
    "parameters": {
      "Right": 4
    },
    "nullable": []
  },
  "hash": "f4378a431edc6d48537cce9115ff1141caf7244f9e9948c4589506963be07730"
}
